<svg xmlns="http://www.w3.org/2000/svg" width="21" height="21" viewBox="0 0 21 21">
    <path fill="#9299A2" fill-rule="nonzero" d="M19.67 20.916a.73.73 0 0 1-.53-.231l-8.64-9.072-8.64 9.072a.728.728 0 0 1-.511.211c-.414 0-.75-.353-.75-.787 0-.208.077-.397.202-.538l8.64-9.072-8.64-9.072A.806.806 0 0 1 .6.89c0-.434.336-.787.75-.787a.73.73 0 0 1 .512.212l8.64 9.072 8.64-9.072a.728.728 0 0 1 .511-.211c.414 0 .75.353.75.787a.808.808 0 0 1-.202.538l-8.64 9.072 8.64 9.072c.136.143.219.34.219.557 0 .434-.335.787-.749.787l-.001-.001z"/>
</svg>
