<svg xmlns="http://www.w3.org/2000/svg" xmlns:xlink="http://www.w3.org/1999/xlink" width="17" height="18" viewBox="0 0 17 18">
    <defs>
        <path id="a" d="M8.99.99l8 8.489-1.286 1.426-5.774-6.37.081 12.475H8.003L7.921 4.535l-5.788 6.37L.99 9.345z"/>
    </defs>
    <g fill="none" fill-rule="evenodd">
        <mask id="b" fill="#fff">
            <use xlink:href="#a"/>
        </mask>
        <path fill="#B3B3B3" d="M-4.01 22.01h26V-4.01h-26z" mask="url(#b)"/>
    </g>
</svg>
